{
	"centerX" : 0.5,
	"centerY" : 0.5,
	"angle" : 0,
	"scale" : 1,
	"width" : 175,
	"height" : 76,
	"contents" : [{
			"type" : "image",
			"resource" : {
				"type" : "static",
				"path" : "res/camer_just_eat_it.png"
			},
			"centerX" : 0.5,
			"centerY" : 0.3,
			"width" : 175,
			"height" : 40,
			"angle" : 0,
			"zorder" : 1
		},
		
		{
            "type": "text",
            "centerX": 0.5,
            "centerY": 0.85,
            "width": 100,
            "height": 15,
            "angle": 0,
            "color": "#ffffffff",
            "isVertical": 0,
			"alignment": 0,
			"editable":true,
            "text": "{LOCATION}",
            "textsize": 18,
            "zorder": 2
        },
		{
            "type": "text",
            "centerX": 0.5,
            "centerY": 0.62,
            "width": 70,
            "height": 15,
            "angle": 0,
            "color": "#ffffffff",
            "isVertical": 0,
			"alignment": 0,
            "text": "{yyyy/MM/dd}",
            "textsize": 18,
            "zorder": 2
        }
	]
}
